

 Time =0

Lista de clienti care asteapta sa intre in cozi este

 (1,12,5)-> (2,27,3)-> (3,25,3)-> (4,3,3)->
Queue  1  Closed
Queue  2  Closed

 Time =1

Lista de clienti care asteapta sa intre in cozi este

 (1,12,5)-> (2,27,3)-> (3,25,3)-> (4,3,3)->
Queue  1  Closed
Queue  2  Closed

 Time =2

Lista de clienti care asteapta sa intre in cozi este

 (1,12,5)-> (2,27,3)-> (3,25,3)-> (4,3,3)->
Queue  1  Closed
Queue  2  Closed

 Time =3

Lista de clienti care asteapta sa intre in cozi este

 (1,12,5)-> (2,27,3)-> (3,25,3)->
Queue  1  (4,3,3)->NULL
Queue  2  Closed

 Time =4

Lista de clienti care asteapta sa intre in cozi este

 (1,12,5)-> (2,27,3)-> (3,25,3)->
Queue  1  (4,3,2)->NULL
Queue  2  Closed

 Time =5

Lista de clienti care asteapta sa intre in cozi este

 (1,12,5)-> (2,27,3)-> (3,25,3)->
Queue  1  (4,3,1)->NULL
Queue  2  Closed

 Time =6

Lista de clienti care asteapta sa intre in cozi este

 (1,12,5)-> (2,27,3)-> (3,25,3)->
Queue  1  Closed
Queue  2  Closed

 Time =7

Lista de clienti care asteapta sa intre in cozi este

 (1,12,5)-> (2,27,3)-> (3,25,3)->
Queue  1  Closed
Queue  2  Closed

 Time =8

Lista de clienti care asteapta sa intre in cozi este

 (1,12,5)-> (2,27,3)-> (3,25,3)->
Queue  1  Closed
Queue  2  Closed

 Time =9

Lista de clienti care asteapta sa intre in cozi este

 (1,12,5)-> (2,27,3)-> (3,25,3)->
Queue  1  Closed
Queue  2  Closed

 Time =10

Lista de clienti care asteapta sa intre in cozi este

 (1,12,5)-> (2,27,3)-> (3,25,3)->
Queue  1  Closed
Queue  2  Closed

 Time =11

Lista de clienti care asteapta sa intre in cozi este

 (1,12,5)-> (2,27,3)-> (3,25,3)->
Queue  1  Closed
Queue  2  Closed

 Time =12

Lista de clienti care asteapta sa intre in cozi este

 (2,27,3)-> (3,25,3)->
Queue  1  (1,12,5)->NULL
Queue  2  Closed

 Time =13

Lista de clienti care asteapta sa intre in cozi este

 (2,27,3)-> (3,25,3)->
Queue  1  (1,12,5)->NULL
Queue  2  Closed

 Time =14

Lista de clienti care asteapta sa intre in cozi este

 (2,27,3)-> (3,25,3)->
Queue  1  (1,12,4)->NULL
Queue  2  Closed

 Time =15

Lista de clienti care asteapta sa intre in cozi este

 (2,27,3)-> (3,25,3)->
Queue  1  (1,12,3)->NULL
Queue  2  Closed

 Time =16

Lista de clienti care asteapta sa intre in cozi este

 (2,27,3)-> (3,25,3)->
Queue  1  (1,12,1)->NULL
Queue  2  Closed

 Time =17

Lista de clienti care asteapta sa intre in cozi este

 (2,27,3)-> (3,25,3)->
Queue  1  Closed
Queue  2  Closed

 Time =18

Lista de clienti care asteapta sa intre in cozi este

 (2,27,3)-> (3,25,3)->
Queue  1  Closed
Queue  2  Closed

 Time =19

Lista de clienti care asteapta sa intre in cozi este

 (2,27,3)-> (3,25,3)->
Queue  1  Closed
Queue  2  Closed

 Time =20

Lista de clienti care asteapta sa intre in cozi este

 (2,27,3)-> (3,25,3)->
Queue  1  Closed
Queue  2  Closed

 Time =21

Lista de clienti care asteapta sa intre in cozi este

 (2,27,3)-> (3,25,3)->
Queue  1  Closed
Queue  2  Closed

 Time =22

Lista de clienti care asteapta sa intre in cozi este

 (2,27,3)-> (3,25,3)->
Queue  1  Closed
Queue  2  Closed

 Time =23

Lista de clienti care asteapta sa intre in cozi este

 (2,27,3)-> (3,25,3)->
Queue  1  Closed
Queue  2  Closed

 Time =24

Lista de clienti care asteapta sa intre in cozi este

 (2,27,3)-> (3,25,3)->
Queue  1  Closed
Queue  2  Closed

 Time =25

Lista de clienti care asteapta sa intre in cozi este

 (2,27,3)->
Queue  1  (3,25,3)->NULL
Queue  2  Closed

 Time =26

Lista de clienti care asteapta sa intre in cozi este

 (2,27,3)->
Queue  1  (3,25,2)->NULL
Queue  2  Closed

 Time =27

Lista de clienti care asteapta sa intre in cozi este


Queue  1  (3,25,1)->NULL
Queue  2  (2,27,3)->NULL

 Time =28

Lista de clienti care asteapta sa intre in cozi este


Queue  1  Closed
Queue  2  (2,27,2)->NULL

 Time =29

Lista de clienti care asteapta sa intre in cozi este


Queue  1  Closed
Queue  2  (2,27,1)->NULL

 Time =30

Lista de clienti care asteapta sa intre in cozi este


Queue  1  Closed
Queue  2  Closed
Average Time -> 3.5
