

 Time =0

Lista de clienti care asteapta sa intre in cozi este

 (1,30,5)-> (2,5,5)-> (3,7,2)-> (4,18,4)->
Queue  1  Closed
Queue  2  Closed

 Time =1

Lista de clienti care asteapta sa intre in cozi este

 (1,30,5)-> (2,5,5)-> (3,7,2)-> (4,18,4)->
Queue  1  Closed
Queue  2  Closed

 Time =2

Lista de clienti care asteapta sa intre in cozi este

 (1,30,5)-> (2,5,5)-> (3,7,2)-> (4,18,4)->
Queue  1  Closed
Queue  2  Closed

 Time =3

Lista de clienti care asteapta sa intre in cozi este

 (1,30,5)-> (2,5,5)-> (3,7,2)-> (4,18,4)->
Queue  1  Closed
Queue  2  Closed

 Time =4

Lista de clienti care asteapta sa intre in cozi este

 (1,30,5)-> (2,5,5)-> (3,7,2)-> (4,18,4)->
Queue  1  Closed
Queue  2  Closed

 Time =5

Lista de clienti care asteapta sa intre in cozi este

 (1,30,5)-> (3,7,2)-> (4,18,4)->
Queue  1  (2,5,5)->NULL
Queue  2  Closed

 Time =6

Lista de clienti care asteapta sa intre in cozi este

 (1,30,5)-> (3,7,2)-> (4,18,4)->
Queue  1  (2,5,4)->NULL
Queue  2  Closed

 Time =7

Lista de clienti care asteapta sa intre in cozi este

 (1,30,5)-> (4,18,4)->
Queue  1  (2,5,3)->NULL
Queue  2  (3,7,2)->NULL

 Time =8

Lista de clienti care asteapta sa intre in cozi este

 (1,30,5)-> (4,18,4)->
Queue  1  (2,5,2)->NULL
Queue  2  (3,7,1)->NULL

 Time =9

Lista de clienti care asteapta sa intre in cozi este

 (1,30,5)-> (4,18,4)->
Queue  1  (2,5,1)->NULL
Queue  2  Closed

 Time =10

Lista de clienti care asteapta sa intre in cozi este

 (1,30,5)-> (4,18,4)->
Queue  1  Closed
Queue  2  Closed

 Time =11

Lista de clienti care asteapta sa intre in cozi este

 (1,30,5)-> (4,18,4)->
Queue  1  Closed
Queue  2  Closed

 Time =12

Lista de clienti care asteapta sa intre in cozi este

 (1,30,5)-> (4,18,4)->
Queue  1  Closed
Queue  2  Closed

 Time =13

Lista de clienti care asteapta sa intre in cozi este

 (1,30,5)-> (4,18,4)->
Queue  1  Closed
Queue  2  Closed

 Time =14

Lista de clienti care asteapta sa intre in cozi este

 (1,30,5)-> (4,18,4)->
Queue  1  Closed
Queue  2  Closed

 Time =15

Lista de clienti care asteapta sa intre in cozi este

 (1,30,5)-> (4,18,4)->
Queue  1  Closed
Queue  2  Closed

 Time =16

Lista de clienti care asteapta sa intre in cozi este

 (1,30,5)-> (4,18,4)->
Queue  1  Closed
Queue  2  Closed

 Time =17

Lista de clienti care asteapta sa intre in cozi este

 (1,30,5)-> (4,18,4)->
Queue  1  Closed
Queue  2  Closed

 Time =18

Lista de clienti care asteapta sa intre in cozi este

 (1,30,5)->
Queue  1  (4,18,4)->NULL
Queue  2  Closed

 Time =19

Lista de clienti care asteapta sa intre in cozi este

 (1,30,5)->
Queue  1  (4,18,4)->NULL
Queue  2  Closed

 Time =20

Lista de clienti care asteapta sa intre in cozi este

 (1,30,5)->
Queue  1  (4,18,3)->NULL
Queue  2  Closed

 Time =21

Lista de clienti care asteapta sa intre in cozi este

 (1,30,5)->
Queue  1  (4,18,2)->NULL
Queue  2  Closed

 Time =22

Lista de clienti care asteapta sa intre in cozi este

 (1,30,5)->
Queue  1  (4,18,1)->NULL
Queue  2  Closed

 Time =23

Lista de clienti care asteapta sa intre in cozi este

 (1,30,5)->
Queue  1  Closed
Queue  2  Closed

 Time =24

Lista de clienti care asteapta sa intre in cozi este

 (1,30,5)->
Queue  1  Closed
Queue  2  Closed

 Time =25

Lista de clienti care asteapta sa intre in cozi este

 (1,30,5)->
Queue  1  Closed
Queue  2  Closed

 Time =26

Lista de clienti care asteapta sa intre in cozi este

 (1,30,5)->
Queue  1  Closed
Queue  2  Closed

 Time =27

Lista de clienti care asteapta sa intre in cozi este

 (1,30,5)->
Queue  1  Closed
Queue  2  Closed

 Time =28

Lista de clienti care asteapta sa intre in cozi este

 (1,30,5)->
Queue  1  Closed
Queue  2  Closed

 Time =29

Lista de clienti care asteapta sa intre in cozi este

 (1,30,5)->
Queue  1  Closed
Queue  2  Closed

 Time =30

Lista de clienti care asteapta sa intre in cozi este


Queue  1  (1,30,5)->NULL
Queue  2  Closed

 Time =31

Lista de clienti care asteapta sa intre in cozi este


Queue  1  (1,30,4)->NULL
Queue  2  Closed

 Time =32

Lista de clienti care asteapta sa intre in cozi este


Queue  1  (1,30,3)->NULL
Queue  2  Closed

 Time =33

Lista de clienti care asteapta sa intre in cozi este


Queue  1  (1,30,2)->NULL
Queue  2  Closed

 Time =34

Lista de clienti care asteapta sa intre in cozi este


Queue  1  (1,30,1)->NULL
Queue  2  Closed

 Time =35

Lista de clienti care asteapta sa intre in cozi este


Queue  1  Closed
Queue  2  Closed
Average Time -> 4.0
